…
 # contagem das variáveis categóricas
 # noções da distribuição de variáveis numéricas
 # quantidade de NA's em cada variável
 ```

## estatística descritiva

Também utilizado um dataset contido no pacote ggplot2 chamado msleep, com hábitos de sono de 83 mamíferos, além do palmerpenguins.

```R
#msleep automaticamente carregado junto com ggplot2
library(ggplot2)

> msleep
# A tibble: 83 × 11
   name         genus vore  order conservation sleep_total sleep_rem sleep_cycle awake  brainwt
   <chr>        <chr> <chr> <chr> <chr>              <dbl>     <dbl>       <dbl> <dbl>    <dbl>
 1 Cheetah      Acin… carni Carn… lc                  12.1      NA        NA      11.9 NA      
 2 Owl monkey   Aotus omni  Prim… NA                  17         1.8      NA       7    0.0155 
 3 Mountain be… Aplo… herbi Rode… nt                  14.4       2.4      NA       9.6 NA      
 4 Greater sho… Blar… omni  Sori… lc                  14.9       2.3       0.133   9.1  0.00029
 5 Cow          Bos   herbi Arti… domesticated         4         0.7       0.667  20    0.423  
 6 Three-toed … Brad… herbi Pilo… NA                  14.4       2.2       0.767   9.6 NA      
 7 Northern fu… Call… carni Carn… vu                   8.7       1.4       0.383  15.3 NA      
 8 Vesper mouse Calo… NA    Rode… NA                   7        NA        NA      17   NA      
 9 Dog          Canis carni Carn… domesticated        10.1       2.9       0.333  13.9  0.07   
10 Roe deer     Capr… herbi Arti… lc                   3        NA        NA      21    0.0982 
# ℹ 73 more rows
# ℹ 1 more variable: bodywt <dbl>
# ℹ Use `print(n = ...)` to see more rows
```
…
